module gitlab.bj.flash.com/casbin

go 1.15

require (
	github.com/casbin/casbin/v2 v2.19.7
	github.com/casbin/gorm-adapter/v3 v3.0.4
	github.com/gin-gonic/gin v1.6.3
	gorm.io/driver/mysql v1.0.3
	gorm.io/gorm v1.20.8
)
